{
  "rdb": {
    "username": "dispatcher",
    "password": "dispatcher",
    "database": "dispatcher",
    "host": "localhost",
    "dialect": "postgres",
    "logging": false
  },
  "startBlock": 0,
  "blockchain": "http://localhost:8540",
  "ipfs": {
    "protocol": "https",
    "host": "ipfs.infura.io",
    "port": 5001,
    "api-path": "/api/v0/"
  },
  "api": "https://api.wono.ai",
  "apiKey": "50b39511-7817-49c5-90e6-53ddbdd95c83-",
  "contractsURL": "https://env.wono.io/contracts/dev.json",
  "contracts": {
    "Token": {
      "addr": "0x7a4471267b797428a6a51cc73fbc9397710f4572"
    },
    "UserStorage": {
      "addr": "0x0759939533e1f59e16c1fe7a2e736f0a3cf570b8",
      "NOaddr": "0x0759939533e1f59e16c1fe7a2e736f0a3cf570b8"
    },
    "AssetFactory": {
      "addr": "0x73548d5a498e6123096bfcf195e1dd7e74b564a7",
      "Noaddr": "0x73548d5a498e6123096bfcf195e1dd7e74b564a7"
    },
    "DealFactory": {
      "addr": "0x9c07f38604b550e6f8bd42e801021bb02622249c"
    }
  }
}
